gender55,age55,gender35,age35,gender99,age99
0.603,0.534,0.609,0.532,0.5973333333333334,0.549
0.604,0.5453333333333333,0.5956666666666667,0.5353333333333333,0.6136666666666667,0.5593333333333333
0.6073333333333333,0.5633333333333334,0.5976666666666667,0.5406666666666666,0.6133333333333333,0.56
0.5953333333333334,0.546,0.6003333333333334,0.5313333333333333,0.601,0.5593333333333333
0.6116666666666667,0.555,0.6043333333333333,0.5373333333333333,0.606,0.5513333333333333
0.6126666666666667,0.545,0.5986666666666667,0.5223333333333333,0.612,0.554
0.5976666666666667,0.55,0.5976666666666667,0.5416666666666666,0.6056666666666667,0.5663333333333334
0.6086666666666667,0.534,0.6013333333333334,0.5213333333333333,0.601,0.5536666666666666
0.5986666666666667,0.5366666666666666,0.5873333333333334,0.5293333333333333,0.596,0.5456666666666666
0.6123333333333333,0.541,0.59,0.518,0.608,0.5483333333333333
0.6103333333333333,0.5403333333333333,0.5993333333333334,0.523,0.6143333333333333,0.5546666666666666
0.6136666666666667,0.537,0.6136666666666667,0.5206666666666667,0.6036666666666667,0.544
0.6053333333333333,0.5346666666666666,0.597,0.52,0.6003333333333334,0.5503333333333333
0.605,0.5396666666666666,0.5953333333333334,0.52,0.5986666666666667,0.5516666666666666
0.6036666666666667,0.5426666666666666,0.593,0.5253333333333333,0.605,0.554
0.623,0.536,0.6066666666666667,0.5226666666666666,0.6176666666666667,0.5516666666666666
0.606,0.532,0.6033333333333334,0.5136666666666667,0.5956666666666667,0.5553333333333333
0.6056666666666667,0.537,0.5983333333333334,0.5003333333333333,0.6013333333333334,0.5523333333333333
0.606,0.534,0.6036666666666667,0.5043333333333333,0.6126666666666667,0.5353333333333333
0.6053333333333333,0.5246666666666666,0.5993333333333334,0.5013333333333333,0.606,0.542
0.592,0.545,0.5843333333333334,0.5286666666666666,0.5993333333333334,0.5533333333333333
0.616,0.544,0.6036666666666667,0.5256666666666666,0.6226666666666667,0.5556666666666666
0.5886666666666667,0.5336666666666666,0.591,0.5123333333333333,0.6053333333333333,0.5616666666666666
0.603,0.5226666666666666,0.592,0.49966666666666665,0.5923333333333334,0.5406666666666666
0.6103333333333333,0.532,0.5983333333333334,0.523,0.601,0.551
0.6056666666666667,0.5406666666666666,0.5993333333333334,0.517,0.6076666666666667,0.5506666666666666
0.592,0.5423333333333333,0.5826666666666667,0.5176666666666667,0.5936666666666667,0.558
